[
    {
        "title": "Alun - Alun Kota Pasuruan",
        "desc": "Taman indah dengan air mancur di tengahnya, yang dikelilingi oleh jalan setapak, bangku & taman kecil.",
        "image":"https://i.ibb.co/4dcqVgG/alun-alun-square.png",
        "link": "https://brisik.id/read/65951/wisata-lengkap-di-alun-alun-pasuruan"
    }
]